<?xml version="1.0" encoding="UTF-8" standalone="no"?>
<svg
   width="128px"
   height="128px"
   version="1.1"
   viewBox="0 0 128 128"
   id="svg25"
   sodipodi:docname="org.gabmus.pala.svg"
   inkscape:version="1.1.1 (3bf5ae0d25, 2021-09-20, custom)"
   xmlns:inkscape="http://www.inkscape.org/namespaces/inkscape"
   xmlns:sodipodi="http://sodipodi.sourceforge.net/DTD/sodipodi-0.dtd"
   xmlns="http://www.w3.org/2000/svg"
   xmlns:svg="http://www.w3.org/2000/svg">
  <sodipodi:namedview
     id="namedview27"
     pagecolor="#505050"
     bordercolor="#eeeeee"
     borderopacity="1"
     inkscape:pageshadow="0"
     inkscape:pageopacity="0"
     inkscape:pagecheckerboard="0"
     showgrid="false"
     inkscape:snap-bbox="true"
     inkscape:bbox-paths="false"
     inkscape:bbox-nodes="true"
     inkscape:snap-smooth-nodes="true"
     inkscape:snap-global="true"
     inkscape:snap-bbox-edge-midpoints="true"
     inkscape:zoom="0.30141808"
     inkscape:cx="54.741243"
     inkscape:cy="753.10679"
     inkscape:window-width="2560"
     inkscape:window-height="1371"
     inkscape:window-x="0"
     inkscape:window-y="32"
     inkscape:window-maximized="1"
     inkscape:current-layer="svg25" />
  <defs
     id="defs15">
    <linearGradient
       id="a"
       x1="7.7074"
       x2="118.74"
       y1="247.68"
       y2="247.68"
       gradientTransform="translate(.49023 -16.628)"
       gradientUnits="userSpaceOnUse">
      <stop
         stop-color="#33d179"
         offset="0"
         id="stop2" />
      <stop
         stop-color="#57e389"
         offset=".030781"
         id="stop4" />
      <stop
         stop-color="#25a45e"
         stop-opacity=".98824"
         offset=".066244"
         id="stop6" />
      <stop
         stop-color="#2dc06f"
         stop-opacity=".93333"
         offset=".6511"
         id="stop8" />
      <stop
         stop-color="#25a05d"
         stop-opacity=".92941"
         offset=".68375"
         id="stop10" />
      <stop
         stop-color="#33d179"
         stop-opacity=".90551"
         offset="1"
         id="stop12" />
    </linearGradient>
  </defs>
  <g
     id="g27559"
     transform="matrix(0.67446225,0,0,0.67446225,417.5456,72.950522)">
    <path
       id="path5287-3"
       style="fill:#2ec27e;fill-opacity:1;stroke-width:34.3898;stroke-linecap:square"
       d="m -519.88284,-98.785255 c -40.97387,0 -74.18945,28.977386 -74.18945,75.580082 0,11.813108 2.1289,23.6036442 6.71094,33.316407 16.48636,34.946881 48.01398,61.219326 67.47851,62.132812 19.46453,-0.913486 50.99216,-27.185931 67.47852,-62.132812 4.58204,-9.7127628 6.71094,-21.503299 6.71094,-33.316407 0,-46.602696 -33.21559,-75.580082 -74.18946,-75.580082 z" />
    <path
       id="path1472-6"
       style="fill:#57e389;stroke-width:34.3898;stroke-linecap:square"
       d="m -519.88284,-98.784895 c -40.97387,0 -74.18945,26.977381 -74.18945,73.580078 0,35.381225 49.49891,90.290472 74.18945,91.449219 24.69054,-1.158747 74.18946,-56.067994 74.18946,-91.449219 0,-46.602697 -33.21559,-73.580078 -74.18946,-73.580078 z" />
    <circle
       style="fill:#2ec27e;fill-opacity:1;stroke:none;stroke-width:17.4213;stroke-linecap:round;stroke-linejoin:round;stroke-miterlimit:4;stroke-dasharray:none;stroke-opacity:1"
       id="path22312-7"
       cx="-560.5614"
       cy="-49.304134"
       r="6.7997456" />
    <circle
       style="fill:#2ec27e;fill-opacity:1;stroke:none;stroke-width:17.4213;stroke-linecap:round;stroke-linejoin:round;stroke-miterlimit:4;stroke-dasharray:none;stroke-opacity:1"
       id="circle22492-5"
       cx="-522.26105"
       cy="-74.724579"
       r="6.7997456" />
    <circle
       style="fill:#2ec27e;fill-opacity:1;stroke:none;stroke-width:17.4213;stroke-linecap:round;stroke-linejoin:round;stroke-miterlimit:4;stroke-dasharray:none;stroke-opacity:1"
       id="circle22494-3"
       cx="-516.33392"
       cy="-28.833941"
       r="6.7997456" />
    <circle
       style="fill:#2ec27e;fill-opacity:1;stroke:none;stroke-width:17.4213;stroke-linecap:round;stroke-linejoin:round;stroke-miterlimit:4;stroke-dasharray:none;stroke-opacity:1"
       id="circle22496-5"
       cx="-466.52026"
       cy="-25.130236"
       r="6.7997456" />
    <circle
       style="fill:#2ec27e;fill-opacity:1;stroke:none;stroke-width:17.4213;stroke-linecap:round;stroke-linejoin:round;stroke-miterlimit:4;stroke-dasharray:none;stroke-opacity:1"
       id="circle22498-6"
       cx="-569.97601"
       cy="-8.9805231"
       r="6.7997456" />
    <circle
       style="fill:#2ec27e;fill-opacity:1;stroke:none;stroke-width:17.4213;stroke-linecap:round;stroke-linejoin:round;stroke-miterlimit:4;stroke-dasharray:none;stroke-opacity:1"
       id="circle22500-2"
       cx="-509.57217"
       cy="41.75666"
       r="6.7997456" />
    <path
       style="fill:#2ec27e;fill-opacity:1;stroke:#2ec27e;stroke-width:8;stroke-linecap:round;stroke-linejoin:round;stroke-miterlimit:4;stroke-dasharray:none;stroke-opacity:1"
       d="m -579.54802,-53.453898 -19.13633,-7.347242"
       id="path22604-9"
       sodipodi:nodetypes="cc" />
    <path
       style="fill:#2ec27e;fill-opacity:1;stroke:#2ec27e;stroke-width:8;stroke-linecap:round;stroke-linejoin:round;stroke-miterlimit:4;stroke-dasharray:none;stroke-opacity:1"
       d="m -567.95647,-71.159494 -3.61519,-16.361761"
       id="path22606-1"
       sodipodi:nodetypes="cc" />
    <path
       style="fill:#2ec27e;fill-opacity:1;stroke:#2ec27e;stroke-width:8;stroke-linecap:round;stroke-linejoin:round;stroke-miterlimit:4;stroke-dasharray:none;stroke-opacity:1"
       d="m -580.41954,-67.468071 -15.03908,-16.855885"
       id="path22608-2"
       sodipodi:nodetypes="cc" />
    <circle
       style="fill:#2ec27e;fill-opacity:1;stroke:none;stroke-width:17.4213;stroke-linecap:round;stroke-linejoin:round;stroke-miterlimit:4;stroke-dasharray:none;stroke-opacity:1"
       id="circle22703-7"
       cx="-531.15356"
       cy="14.283322"
       r="6.7997456" />
    <circle
       style="fill:#2ec27e;fill-opacity:1;stroke:none;stroke-width:17.4213;stroke-linecap:round;stroke-linejoin:round;stroke-miterlimit:4;stroke-dasharray:none;stroke-opacity:1"
       id="circle22705-0"
       cx="-476.81482"
       cy="15.503041"
       r="6.7997456" />
    <circle
       style="fill:#2ec27e;fill-opacity:1;stroke:none;stroke-width:17.4213;stroke-linecap:round;stroke-linejoin:round;stroke-miterlimit:4;stroke-dasharray:none;stroke-opacity:1"
       id="circle22707-9"
       cx="-477.55817"
       cy="-59.356045"
       r="6.7997456" />
  </g>
</svg>
